{
  "project_info": {
    "project_number": "143555180074",
    "project_id": "noteapp-fd257",
    "storage_bucket": "noteapp-fd257.appspot.com"
  },
  "client": [
    {
      "client_info": {
        "mobilesdk_app_id": "1:143555180074:android:8236a9edce8f33ed907553",
        "android_client_info": {
          "package_name": "com.example.note_app"
        }
      },
      "oauth_client": [
        {
          "client_id": "143555180074-q76gf97b554hbemvk412kf3lueq8cf1u.apps.googleusercontent.com",
          "client_type": 1,
          "android_info": {
            "package_name": "com.example.note_app",
            "certificate_hash": "d73aa1bf336d151147446eace0ca326d04a6d392"
          }
        },
        {
          "client_id": "143555180074-cjm3vsnkjprmbaqak92r4lau2f57rm5f.apps.googleusercontent.com",
          "client_type": 3
        }
      ],
      "api_key": [
        {
          "current_key": "AIzaSyAMpTEMmfgc0K5wOqPpNet1TceyWMXgyl8"
        }
      ],
      "services": {
        "appinvite_service": {
          "other_platform_oauth_client": [
            {
              "client_id": "143555180074-cjm3vsnkjprmbaqak92r4lau2f57rm5f.apps.googleusercontent.com",
              "client_type": 3
            }
          ]
        }
      }
    }
  ],
  "configuration_version": "1"
}